// Jest Snapshot v1, https://goo.gl/fbAQLP

exports[`TRecord (Simple 1) 1`] = `
Object {
  "record__type": Object {
    "type": "TRecord",
  },
}
`;

exports[`TRecord (Simple 2) 1`] = `
Object {
  "record__type": Object {
    "properties": Object {},
    "type": "TRecord",
  },
}
`;

exports[`TRecord (TMap<TNat, TInt>) 1`] = `
Object {
  "record__type": Object {
    "properties": Object {
      "a": Object {
        "keyType": Object {
          "type": "TNat",
        },
        "type": "TMap",
        "valueType": Object {
          "type": "TInt",
        },
      },
    },
    "type": "TRecord",
  },
}
`;

exports[`TRecord Untyped property (Must generate errors) 1`] = `
Array [
  Object {
    "line": Object {
      "character": 16,
      "line": 2,
    },
    "msg": "Property (a) does not have a type.",
  },
]
`;
