[
  {
    "scenario": [
      {
        "action": "newContract",
        "id": "(static_id 0 51)",
        "export": "(\n            template_id (static_id 0 51)\n            storage (record 17 (config (record 18 (admin (literal (address \"tz1\") 19)) (paused (literal (bool False) 20)))) (assets (record 22 (ledger (big_map 23 )) (operators (big_map 24 )) (token_metadata (big_map 25 )) (token_total_supply (big_map 26 )))) (metadata (big_map 28 )))\n            storage_type ((record ((config (record ((admin \"address\") (paused \"bool\")) None)) (assets (record ((ledger (bigmap (tuple (\"address\" \"nat\")) \"nat\")) (operators (bigmap (record ((operator \"address\") (owner \"address\") (token_id \"nat\")) None) \"unit\")) (token_metadata (bigmap \"nat\" (record ((token_id \"nat\") (token_info (map \"string\" \"bytes\"))) None))) (token_total_supply (bigmap \"nat\" \"nat\"))) None)) (metadata (bigmap \"string\" \"bytes\"))) None))\n            messages ((transfer True False False True 59 ((set_type (params 59) (list (record ((from_ \"address\") (txs (list (record ((to_ \"address\") (token_id \"nat\") (amount \"nat\")) (Some ((\"to_\") ((\"token_id\") (\"amount\")))))))) (Some ((\"from_\") (\"txs\"))))) 32) )) (mint True False False True 66 ((set_type (attr (params 66) \"tokenId\" 66) \"nat\" 67) (set_type (attr (params 66) \"address\" 66) \"address\" 67) (set_type (attr (params 66) \"amount\" 66) \"nat\" 67) (verify (eq (sender) (attr (attr (data) \"config\" 68) \"admin\" 68) 68) (literal (string \"FA2_NOT_ADMIN\") 68) 68) (defineLocal \"user\" (tuple 70 (attr (params 70) \"address\" 70) (attr (params 70) \"tokenId\" 70)) 70))) (pause True False False True 77 ((set_type (params 77) \"bool\" 78) (set (attr (attr (data) \"config\" 79) \"paused\" 79) (params 79) 79))) (set_admin True False False True 86 ((set_type (params 86) \"address\" 87) (set (attr (attr (data) \"config\" 88) \"admin\" 88) (params 88) 88))) (update_metadata True False False True 95 ((set_type (params 95) (bigmap \"string\" \"bytes\") 96) (set (attr (data) \"metadata\" 97) (params 97) 97))))\n            flags ()\n            globals ()\n            views ()\n            entry_points_layout ()\n            initial_metadata ()\n            balance ()\n        )",
        "line_no": 51,
        "show": true,
        "accept_unknown_types": false
      }
    ],
    "shortname": "test",
    "kind": "test",
    "warnings": []
  }
]
